<?xml version="1.0" encoding="utf-8" standalone="no"?>
<!DOCTYPE svg PUBLIC "-//W3C//DTD SVG 1.1//EN"
  "http://www.w3.org/Graphics/SVG/1.1/DTD/svg11.dtd">
<!-- Created with matplotlib (http://matplotlib.org/) -->
<svg height="259pt" version="1.1" viewBox="0 0 311 259" width="311pt" xmlns="http://www.w3.org/2000/svg" xmlns:xlink="http://www.w3.org/1999/xlink">
 <defs>
  <style type="text/css">
*{stroke-linecap:butt;stroke-linejoin:round;}
  </style>
 </defs>
 <g id="figure_1">
  <g id="patch_1">
   <path d="M 0 259.2 
L 311.04 259.2 
L 311.04 0 
L 0 0 
z
" style="fill:#ffffff;"/>
  </g>
  <g id="axes_1">
   <g id="patch_2">
    <path d="M 50.87 217.24 
L 297.72 217.24 
L 297.72 13.32 
L 50.87 13.32 
z
" style="fill:#ffffff;"/>
   </g>
   <g id="matplotlib.axis_1">
    <g id="xtick_1">
     <g id="line2d_1">
      <defs>
       <path d="M 0 0 
L 0 3.5 
" id="mc8669a6532" style="stroke:#000000;stroke-width:0.8;"/>
      </defs>
      <g>
       <use style="stroke:#000000;stroke-width:0.8;" x="54.851452" xlink:href="#mc8669a6532" y="217.24"/>
      </g>
     </g>
     <g id="text_1">
      <!-- 0 -->
      <defs>
       <path d="M 31.78125 66.40625 
Q 24.171875 66.40625 20.328125 58.90625 
Q 16.5 51.421875 16.5 36.375 
Q 16.5 21.390625 20.328125 13.890625 
Q 24.171875 6.390625 31.78125 6.390625 
Q 39.453125 6.390625 43.28125 13.890625 
Q 47.125 21.390625 47.125 36.375 
Q 47.125 51.421875 43.28125 58.90625 
Q 39.453125 66.40625 31.78125 66.40625 
M 31.78125 74.21875 
Q 44.046875 74.21875 50.515625 64.515625 
Q 56.984375 54.828125 56.984375 36.375 
Q 56.984375 17.96875 50.515625 8.265625 
Q 44.046875 -1.421875 31.78125 -1.421875 
Q 19.53125 -1.421875 13.0625 8.265625 
Q 6.59375 17.96875 6.59375 36.375 
Q 6.59375 54.828125 13.0625 64.515625 
Q 19.53125 74.21875 31.78125 74.21875 
" id="DejaVuSans-30"/>
      </defs>
      <g transform="translate(51.670202 231.838437)scale(0.1 -0.1)">
       <use xlink:href="#DejaVuSans-30"/>
      </g>
     </g>
    </g>
    <g id="xtick_2">
     <g id="line2d_2">
      <g>
       <use style="stroke:#000000;stroke-width:0.8;" x="91.046466" xlink:href="#mc8669a6532" y="217.24"/>
      </g>
     </g>
     <g id="text_2">
      <!-- 50 -->
      <defs>
       <path d="M 10.796875 72.90625 
L 49.515625 72.90625 
L 49.515625 64.59375 
L 19.828125 64.59375 
L 19.828125 46.734375 
Q 21.96875 47.46875 24.109375 47.828125 
Q 26.265625 48.1875 28.421875 48.1875 
Q 40.625 48.1875 47.75 41.5 
Q 54.890625 34.8125 54.890625 23.390625 
Q 54.890625 11.625 47.5625 5.09375 
Q 40.234375 -1.421875 26.90625 -1.421875 
Q 22.3125 -1.421875 17.546875 -0.640625 
Q 12.796875 0.140625 7.71875 1.703125 
L 7.71875 11.625 
Q 12.109375 9.234375 16.796875 8.0625 
Q 21.484375 6.890625 26.703125 6.890625 
Q 35.15625 6.890625 40.078125 11.328125 
Q 45.015625 15.765625 45.015625 23.390625 
Q 45.015625 31 40.078125 35.4375 
Q 35.15625 39.890625 26.703125 39.890625 
Q 22.75 39.890625 18.8125 39.015625 
Q 14.890625 38.140625 10.796875 36.28125 
z
" id="DejaVuSans-35"/>
      </defs>
      <g transform="translate(84.683966 231.838437)scale(0.1 -0.1)">
       <use xlink:href="#DejaVuSans-35"/>
       <use x="63.623047" xlink:href="#DejaVuSans-30"/>
      </g>
     </g>
    </g>
    <g id="xtick_3">
     <g id="line2d_3">
      <g>
       <use style="stroke:#000000;stroke-width:0.8;" x="127.241481" xlink:href="#mc8669a6532" y="217.24"/>
      </g>
     </g>
     <g id="text_3">
      <!-- 100 -->
      <defs>
       <path d="M 12.40625 8.296875 
L 28.515625 8.296875 
L 28.515625 63.921875 
L 10.984375 60.40625 
L 10.984375 69.390625 
L 28.421875 72.90625 
L 38.28125 72.90625 
L 38.28125 8.296875 
L 54.390625 8.296875 
L 54.390625 0 
L 12.40625 0 
z
" id="DejaVuSans-31"/>
      </defs>
      <g transform="translate(117.697731 231.838437)scale(0.1 -0.1)">
       <use xlink:href="#DejaVuSans-31"/>
       <use x="63.623047" xlink:href="#DejaVuSans-30"/>
       <use x="127.246094" xlink:href="#DejaVuSans-30"/>
      </g>
     </g>
    </g>
    <g id="xtick_4">
     <g id="line2d_4">
      <g>
       <use style="stroke:#000000;stroke-width:0.8;" x="163.436496" xlink:href="#mc8669a6532" y="217.24"/>
      </g>
     </g>
     <g id="text_4">
      <!-- 150 -->
      <g transform="translate(153.892746 231.838437)scale(0.1 -0.1)">
       <use xlink:href="#DejaVuSans-31"/>
       <use x="63.623047" xlink:href="#DejaVuSans-35"/>
       <use x="127.246094" xlink:href="#DejaVuSans-30"/>
      </g>
     </g>
    </g>
    <g id="xtick_5">
     <g id="line2d_5">
      <g>
       <use style="stroke:#000000;stroke-width:0.8;" x="199.63151" xlink:href="#mc8669a6532" y="217.24"/>
      </g>
     </g>
     <g id="text_5">
      <!-- 200 -->
      <defs>
       <path d="M 19.1875 8.296875 
L 53.609375 8.296875 
L 53.609375 0 
L 7.328125 0 
L 7.328125 8.296875 
Q 12.9375 14.109375 22.625 23.890625 
Q 32.328125 33.6875 34.8125 36.53125 
Q 39.546875 41.84375 41.421875 45.53125 
Q 43.3125 49.21875 43.3125 52.78125 
Q 43.3125 58.59375 39.234375 62.25 
Q 35.15625 65.921875 28.609375 65.921875 
Q 23.96875 65.921875 18.8125 64.3125 
Q 13.671875 62.703125 7.8125 59.421875 
L 7.8125 69.390625 
Q 13.765625 71.78125 18.9375 73 
Q 24.125 74.21875 28.421875 74.21875 
Q 39.75 74.21875 46.484375 68.546875 
Q 53.21875 62.890625 53.21875 53.421875 
Q 53.21875 48.921875 51.53125 44.890625 
Q 49.859375 40.875 45.40625 35.40625 
Q 44.1875 33.984375 37.640625 27.21875 
Q 31.109375 20.453125 19.1875 8.296875 
" id="DejaVuSans-32"/>
      </defs>
      <g transform="translate(190.08776 231.838437)scale(0.1 -0.1)">
       <use xlink:href="#DejaVuSans-32"/>
       <use x="63.623047" xlink:href="#DejaVuSans-30"/>
       <use x="127.246094" xlink:href="#DejaVuSans-30"/>
      </g>
     </g>
    </g>
    <g id="xtick_6">
     <g id="line2d_6">
      <g>
       <use style="stroke:#000000;stroke-width:0.8;" x="235.826525" xlink:href="#mc8669a6532" y="217.24"/>
      </g>
     </g>
     <g id="text_6">
      <!-- 250 -->
      <g transform="translate(226.282775 231.838437)scale(0.1 -0.1)">
       <use xlink:href="#DejaVuSans-32"/>
       <use x="63.623047" xlink:href="#DejaVuSans-35"/>
       <use x="127.246094" xlink:href="#DejaVuSans-30"/>
      </g>
     </g>
    </g>
    <g id="xtick_7">
     <g id="line2d_7">
      <g>
       <use style="stroke:#000000;stroke-width:0.8;" x="272.02154" xlink:href="#mc8669a6532" y="217.24"/>
      </g>
     </g>
     <g id="text_7">
      <!-- 300 -->
      <defs>
       <path d="M 40.578125 39.3125 
Q 47.65625 37.796875 51.625 33 
Q 55.609375 28.21875 55.609375 21.1875 
Q 55.609375 10.40625 48.1875 4.484375 
Q 40.765625 -1.421875 27.09375 -1.421875 
Q 22.515625 -1.421875 17.65625 -0.515625 
Q 12.796875 0.390625 7.625 2.203125 
L 7.625 11.71875 
Q 11.71875 9.328125 16.59375 8.109375 
Q 21.484375 6.890625 26.8125 6.890625 
Q 36.078125 6.890625 40.9375 10.546875 
Q 45.796875 14.203125 45.796875 21.1875 
Q 45.796875 27.640625 41.28125 31.265625 
Q 36.765625 34.90625 28.71875 34.90625 
L 20.21875 34.90625 
L 20.21875 43.015625 
L 29.109375 43.015625 
Q 36.375 43.015625 40.234375 45.921875 
Q 44.09375 48.828125 44.09375 54.296875 
Q 44.09375 59.90625 40.109375 62.90625 
Q 36.140625 65.921875 28.71875 65.921875 
Q 24.65625 65.921875 20.015625 65.03125 
Q 15.375 64.15625 9.8125 62.3125 
L 9.8125 71.09375 
Q 15.4375 72.65625 20.34375 73.4375 
Q 25.25 74.21875 29.59375 74.21875 
Q 40.828125 74.21875 47.359375 69.109375 
Q 53.90625 64.015625 53.90625 55.328125 
Q 53.90625 49.265625 50.4375 45.09375 
Q 46.96875 40.921875 40.578125 39.3125 
" id="DejaVuSans-33"/>
      </defs>
      <g transform="translate(262.47779 231.838437)scale(0.1 -0.1)">
       <use xlink:href="#DejaVuSans-33"/>
       <use x="63.623047" xlink:href="#DejaVuSans-30"/>
       <use x="127.246094" xlink:href="#DejaVuSans-30"/>
      </g>
     </g>
    </g>
    <g id="text_8">
     <!-- Number of rows in training set -->
     <defs>
      <path d="M 9.8125 72.90625 
L 23.09375 72.90625 
L 55.421875 11.921875 
L 55.421875 72.90625 
L 64.984375 72.90625 
L 64.984375 0 
L 51.703125 0 
L 19.390625 60.984375 
L 19.390625 0 
L 9.8125 0 
z
" id="DejaVuSans-4e"/>
      <path d="M 8.5 21.578125 
L 8.5 54.6875 
L 17.484375 54.6875 
L 17.484375 21.921875 
Q 17.484375 14.15625 20.5 10.265625 
Q 23.53125 6.390625 29.59375 6.390625 
Q 36.859375 6.390625 41.078125 11.03125 
Q 45.3125 15.671875 45.3125 23.6875 
L 45.3125 54.6875 
L 54.296875 54.6875 
L 54.296875 0 
L 45.3125 0 
L 45.3125 8.40625 
Q 42.046875 3.421875 37.71875 1 
Q 33.40625 -1.421875 27.6875 -1.421875 
Q 18.265625 -1.421875 13.375 4.4375 
Q 8.5 10.296875 8.5 21.578125 
M 31.109375 56 
z
" id="DejaVuSans-75"/>
      <path d="M 52 44.1875 
Q 55.375 50.25 60.0625 53.125 
Q 64.75 56 71.09375 56 
Q 79.640625 56 84.28125 50.015625 
Q 88.921875 44.046875 88.921875 33.015625 
L 88.921875 0 
L 79.890625 0 
L 79.890625 32.71875 
Q 79.890625 40.578125 77.09375 44.375 
Q 74.3125 48.1875 68.609375 48.1875 
Q 61.625 48.1875 57.5625 43.546875 
Q 53.515625 38.921875 53.515625 30.90625 
L 53.515625 0 
L 44.484375 0 
L 44.484375 32.71875 
Q 44.484375 40.625 41.703125 44.40625 
Q 38.921875 48.1875 33.109375 48.1875 
Q 26.21875 48.1875 22.15625 43.53125 
Q 18.109375 38.875 18.109375 30.90625 
L 18.109375 0 
L 9.078125 0 
L 9.078125 54.6875 
L 18.109375 54.6875 
L 18.109375 46.1875 
Q 21.1875 51.21875 25.484375 53.609375 
Q 29.78125 56 35.6875 56 
Q 41.65625 56 45.828125 52.96875 
Q 50 49.953125 52 44.1875 
" id="DejaVuSans-6d"/>
      <path d="M 48.6875 27.296875 
Q 48.6875 37.203125 44.609375 42.84375 
Q 40.53125 48.484375 33.40625 48.484375 
Q 26.265625 48.484375 22.1875 42.84375 
Q 18.109375 37.203125 18.109375 27.296875 
Q 18.109375 17.390625 22.1875 11.75 
Q 26.265625 6.109375 33.40625 6.109375 
Q 40.53125 6.109375 44.609375 11.75 
Q 48.6875 17.390625 48.6875 27.296875 
M 18.109375 46.390625 
Q 20.953125 51.265625 25.265625 53.625 
Q 29.59375 56 35.59375 56 
Q 45.5625 56 51.78125 48.09375 
Q 58.015625 40.1875 58.015625 27.296875 
Q 58.015625 14.40625 51.78125 6.484375 
Q 45.5625 -1.421875 35.59375 -1.421875 
Q 29.59375 -1.421875 25.265625 0.953125 
Q 20.953125 3.328125 18.109375 8.203125 
L 18.109375 0 
L 9.078125 0 
L 9.078125 75.984375 
L 18.109375 75.984375 
z
" id="DejaVuSans-62"/>
      <path d="M 56.203125 29.59375 
L 56.203125 25.203125 
L 14.890625 25.203125 
Q 15.484375 15.921875 20.484375 11.0625 
Q 25.484375 6.203125 34.421875 6.203125 
Q 39.59375 6.203125 44.453125 7.46875 
Q 49.3125 8.734375 54.109375 11.28125 
L 54.109375 2.78125 
Q 49.265625 0.734375 44.1875 -0.34375 
Q 39.109375 -1.421875 33.890625 -1.421875 
Q 20.796875 -1.421875 13.15625 6.1875 
Q 5.515625 13.8125 5.515625 26.8125 
Q 5.515625 40.234375 12.765625 48.109375 
Q 20.015625 56 32.328125 56 
Q 43.359375 56 49.78125 48.890625 
Q 56.203125 41.796875 56.203125 29.59375 
M 47.21875 32.234375 
Q 47.125 39.59375 43.09375 43.984375 
Q 39.0625 48.390625 32.421875 48.390625 
Q 24.90625 48.390625 20.390625 44.140625 
Q 15.875 39.890625 15.1875 32.171875 
z
" id="DejaVuSans-65"/>
      <path d="M 41.109375 46.296875 
Q 39.59375 47.171875 37.8125 47.578125 
Q 36.03125 48 33.890625 48 
Q 26.265625 48 22.1875 43.046875 
Q 18.109375 38.09375 18.109375 28.8125 
L 18.109375 0 
L 9.078125 0 
L 9.078125 54.6875 
L 18.109375 54.6875 
L 18.109375 46.1875 
Q 20.953125 51.171875 25.484375 53.578125 
Q 30.03125 56 36.53125 56 
Q 37.453125 56 38.578125 55.875 
Q 39.703125 55.765625 41.0625 55.515625 
z
" id="DejaVuSans-72"/>
      <path id="DejaVuSans-20"/>
      <path d="M 30.609375 48.390625 
Q 23.390625 48.390625 19.1875 42.75 
Q 14.984375 37.109375 14.984375 27.296875 
Q 14.984375 17.484375 19.15625 11.84375 
Q 23.34375 6.203125 30.609375 6.203125 
Q 37.796875 6.203125 41.984375 11.859375 
Q 46.1875 17.53125 46.1875 27.296875 
Q 46.1875 37.015625 41.984375 42.703125 
Q 37.796875 48.390625 30.609375 48.390625 
M 30.609375 56 
Q 42.328125 56 49.015625 48.375 
Q 55.71875 40.765625 55.71875 27.296875 
Q 55.71875 13.875 49.015625 6.21875 
Q 42.328125 -1.421875 30.609375 -1.421875 
Q 18.84375 -1.421875 12.171875 6.21875 
Q 5.515625 13.875 5.515625 27.296875 
Q 5.515625 40.765625 12.171875 48.375 
Q 18.84375 56 30.609375 56 
" id="DejaVuSans-6f"/>
      <path d="M 37.109375 75.984375 
L 37.109375 68.5 
L 28.515625 68.5 
Q 23.6875 68.5 21.796875 66.546875 
Q 19.921875 64.59375 19.921875 59.515625 
L 19.921875 54.6875 
L 34.71875 54.6875 
L 34.71875 47.703125 
L 19.921875 47.703125 
L 19.921875 0 
L 10.890625 0 
L 10.890625 47.703125 
L 2.296875 47.703125 
L 2.296875 54.6875 
L 10.890625 54.6875 
L 10.890625 58.5 
Q 10.890625 67.625 15.140625 71.796875 
Q 19.390625 75.984375 28.609375 75.984375 
z
" id="DejaVuSans-66"/>
      <path d="M 4.203125 54.6875 
L 13.1875 54.6875 
L 24.421875 12.015625 
L 35.59375 54.6875 
L 46.1875 54.6875 
L 57.421875 12.015625 
L 68.609375 54.6875 
L 77.59375 54.6875 
L 63.28125 0 
L 52.6875 0 
L 40.921875 44.828125 
L 29.109375 0 
L 18.5 0 
z
" id="DejaVuSans-77"/>
      <path d="M 44.28125 53.078125 
L 44.28125 44.578125 
Q 40.484375 46.53125 36.375 47.5 
Q 32.28125 48.484375 27.875 48.484375 
Q 21.1875 48.484375 17.84375 46.4375 
Q 14.5 44.390625 14.5 40.28125 
Q 14.5 37.15625 16.890625 35.375 
Q 19.28125 33.59375 26.515625 31.984375 
L 29.59375 31.296875 
Q 39.15625 29.25 43.1875 25.515625 
Q 47.21875 21.78125 47.21875 15.09375 
Q 47.21875 7.46875 41.1875 3.015625 
Q 35.15625 -1.421875 24.609375 -1.421875 
Q 20.21875 -1.421875 15.453125 -0.5625 
Q 10.6875 0.296875 5.421875 2 
L 5.421875 11.28125 
Q 10.40625 8.6875 15.234375 7.390625 
Q 20.0625 6.109375 24.8125 6.109375 
Q 31.15625 6.109375 34.5625 8.28125 
Q 37.984375 10.453125 37.984375 14.40625 
Q 37.984375 18.0625 35.515625 20.015625 
Q 33.0625 21.96875 24.703125 23.78125 
L 21.578125 24.515625 
Q 13.234375 26.265625 9.515625 29.90625 
Q 5.8125 33.546875 5.8125 39.890625 
Q 5.8125 47.609375 11.28125 51.796875 
Q 16.75 56 26.8125 56 
Q 31.78125 56 36.171875 55.265625 
Q 40.578125 54.546875 44.28125 53.078125 
" id="DejaVuSans-73"/>
      <path d="M 9.421875 54.6875 
L 18.40625 54.6875 
L 18.40625 0 
L 9.421875 0 
z
M 9.421875 75.984375 
L 18.40625 75.984375 
L 18.40625 64.59375 
L 9.421875 64.59375 
z
" id="DejaVuSans-69"/>
      <path d="M 54.890625 33.015625 
L 54.890625 0 
L 45.90625 0 
L 45.90625 32.71875 
Q 45.90625 40.484375 42.875 44.328125 
Q 39.84375 48.1875 33.796875 48.1875 
Q 26.515625 48.1875 22.3125 43.546875 
Q 18.109375 38.921875 18.109375 30.90625 
L 18.109375 0 
L 9.078125 0 
L 9.078125 54.6875 
L 18.109375 54.6875 
L 18.109375 46.1875 
Q 21.34375 51.125 25.703125 53.5625 
Q 30.078125 56 35.796875 56 
Q 45.21875 56 50.046875 50.171875 
Q 54.890625 44.34375 54.890625 33.015625 
" id="DejaVuSans-6e"/>
      <path d="M 18.3125 70.21875 
L 18.3125 54.6875 
L 36.8125 54.6875 
L 36.8125 47.703125 
L 18.3125 47.703125 
L 18.3125 18.015625 
Q 18.3125 11.328125 20.140625 9.421875 
Q 21.96875 7.515625 27.59375 7.515625 
L 36.8125 7.515625 
L 36.8125 0 
L 27.59375 0 
Q 17.1875 0 13.234375 3.875 
Q 9.28125 7.765625 9.28125 18.015625 
L 9.28125 47.703125 
L 2.6875 47.703125 
L 2.6875 54.6875 
L 9.28125 54.6875 
L 9.28125 70.21875 
z
" id="DejaVuSans-74"/>
      <path d="M 34.28125 27.484375 
Q 23.390625 27.484375 19.1875 25 
Q 14.984375 22.515625 14.984375 16.5 
Q 14.984375 11.71875 18.140625 8.90625 
Q 21.296875 6.109375 26.703125 6.109375 
Q 34.1875 6.109375 38.703125 11.40625 
Q 43.21875 16.703125 43.21875 25.484375 
L 43.21875 27.484375 
z
M 52.203125 31.203125 
L 52.203125 0 
L 43.21875 0 
L 43.21875 8.296875 
Q 40.140625 3.328125 35.546875 0.953125 
Q 30.953125 -1.421875 24.3125 -1.421875 
Q 15.921875 -1.421875 10.953125 3.296875 
Q 6 8.015625 6 15.921875 
Q 6 25.140625 12.171875 29.828125 
Q 18.359375 34.515625 30.609375 34.515625 
L 43.21875 34.515625 
L 43.21875 35.40625 
Q 43.21875 41.609375 39.140625 45 
Q 35.0625 48.390625 27.6875 48.390625 
Q 23 48.390625 18.546875 47.265625 
Q 14.109375 46.140625 10.015625 43.890625 
L 10.015625 52.203125 
Q 14.9375 54.109375 19.578125 55.046875 
Q 24.21875 56 28.609375 56 
Q 40.484375 56 46.34375 49.84375 
Q 52.203125 43.703125 52.203125 31.203125 
" id="DejaVuSans-61"/>
      <path d="M 45.40625 27.984375 
Q 45.40625 37.75 41.375 43.109375 
Q 37.359375 48.484375 30.078125 48.484375 
Q 22.859375 48.484375 18.828125 43.109375 
Q 14.796875 37.75 14.796875 27.984375 
Q 14.796875 18.265625 18.828125 12.890625 
Q 22.859375 7.515625 30.078125 7.515625 
Q 37.359375 7.515625 41.375 12.890625 
Q 45.40625 18.265625 45.40625 27.984375 
M 54.390625 6.78125 
Q 54.390625 -7.171875 48.1875 -13.984375 
Q 42 -20.796875 29.203125 -20.796875 
Q 24.46875 -20.796875 20.265625 -20.09375 
Q 16.0625 -19.390625 12.109375 -17.921875 
L 12.109375 -9.1875 
Q 16.0625 -11.328125 19.921875 -12.34375 
Q 23.78125 -13.375 27.78125 -13.375 
Q 36.625 -13.375 41.015625 -8.765625 
Q 45.40625 -4.15625 45.40625 5.171875 
L 45.40625 9.625 
Q 42.625 4.78125 38.28125 2.390625 
Q 33.9375 0 27.875 0 
Q 17.828125 0 11.671875 7.65625 
Q 5.515625 15.328125 5.515625 27.984375 
Q 5.515625 40.671875 11.671875 48.328125 
Q 17.828125 56 27.875 56 
Q 33.9375 56 38.28125 53.609375 
Q 42.625 51.21875 45.40625 46.390625 
L 45.40625 54.6875 
L 54.390625 54.6875 
z
" id="DejaVuSans-67"/>
     </defs>
     <g transform="translate(98.068437 245.516562)scale(0.1 -0.1)">
      <use xlink:href="#DejaVuSans-4e"/>
      <use x="74.804688" xlink:href="#DejaVuSans-75"/>
      <use x="138.183594" xlink:href="#DejaVuSans-6d"/>
      <use x="235.595703" xlink:href="#DejaVuSans-62"/>
      <use x="299.072266" xlink:href="#DejaVuSans-65"/>
      <use x="360.595703" xlink:href="#DejaVuSans-72"/>
      <use x="401.708984" xlink:href="#DejaVuSans-20"/>
      <use x="433.496094" xlink:href="#DejaVuSans-6f"/>
      <use x="494.677734" xlink:href="#DejaVuSans-66"/>
      <use x="529.882812" xlink:href="#DejaVuSans-20"/>
      <use x="561.669922" xlink:href="#DejaVuSans-72"/>
      <use x="602.751953" xlink:href="#DejaVuSans-6f"/>
      <use x="663.933594" xlink:href="#DejaVuSans-77"/>
      <use x="745.720703" xlink:href="#DejaVuSans-73"/>
      <use x="797.820312" xlink:href="#DejaVuSans-20"/>
      <use x="829.607422" xlink:href="#DejaVuSans-69"/>
      <use x="857.390625" xlink:href="#DejaVuSans-6e"/>
      <use x="920.769531" xlink:href="#DejaVuSans-20"/>
      <use x="952.556641" xlink:href="#DejaVuSans-74"/>
      <use x="991.765625" xlink:href="#DejaVuSans-72"/>
      <use x="1032.878906" xlink:href="#DejaVuSans-61"/>
      <use x="1094.158203" xlink:href="#DejaVuSans-69"/>
      <use x="1121.941406" xlink:href="#DejaVuSans-6e"/>
      <use x="1185.320312" xlink:href="#DejaVuSans-69"/>
      <use x="1213.103516" xlink:href="#DejaVuSans-6e"/>
      <use x="1276.482422" xlink:href="#DejaVuSans-67"/>
      <use x="1339.958984" xlink:href="#DejaVuSans-20"/>
      <use x="1371.746094" xlink:href="#DejaVuSans-73"/>
      <use x="1423.845703" xlink:href="#DejaVuSans-65"/>
      <use x="1485.369141" xlink:href="#DejaVuSans-74"/>
     </g>
    </g>
   </g>
   <g id="matplotlib.axis_2">
    <g id="ytick_1">
     <g id="line2d_8">
      <defs>
       <path d="M 0 0 
L -3.5 0 
" id="m2f778b50c0" style="stroke:#000000;stroke-width:0.8;"/>
      </defs>
      <g>
       <use style="stroke:#000000;stroke-width:0.8;" x="50.87" xlink:href="#m2f778b50c0" y="190.333889"/>
      </g>
     </g>
     <g id="text_9">
      <!-- 0 -->
      <g transform="translate(37.5075 194.133108)scale(0.1 -0.1)">
       <use xlink:href="#DejaVuSans-30"/>
      </g>
     </g>
    </g>
    <g id="ytick_2">
     <g id="line2d_9">
      <g>
       <use style="stroke:#000000;stroke-width:0.8;" x="50.87" xlink:href="#m2f778b50c0" y="162.011667"/>
      </g>
     </g>
     <g id="text_10">
      <!-- 20 -->
      <g transform="translate(31.145 165.810885)scale(0.1 -0.1)">
       <use xlink:href="#DejaVuSans-32"/>
       <use x="63.623047" xlink:href="#DejaVuSans-30"/>
      </g>
     </g>
    </g>
    <g id="ytick_3">
     <g id="line2d_10">
      <g>
       <use style="stroke:#000000;stroke-width:0.8;" x="50.87" xlink:href="#m2f778b50c0" y="133.689444"/>
      </g>
     </g>
     <g id="text_11">
      <!-- 40 -->
      <defs>
       <path d="M 37.796875 64.3125 
L 12.890625 25.390625 
L 37.796875 25.390625 
z
M 35.203125 72.90625 
L 47.609375 72.90625 
L 47.609375 25.390625 
L 58.015625 25.390625 
L 58.015625 17.1875 
L 47.609375 17.1875 
L 47.609375 0 
L 37.796875 0 
L 37.796875 17.1875 
L 4.890625 17.1875 
L 4.890625 26.703125 
z
" id="DejaVuSans-34"/>
      </defs>
      <g transform="translate(31.145 137.488663)scale(0.1 -0.1)">
       <use xlink:href="#DejaVuSans-34"/>
       <use x="63.623047" xlink:href="#DejaVuSans-30"/>
      </g>
     </g>
    </g>
    <g id="ytick_4">
     <g id="line2d_11">
      <g>
       <use style="stroke:#000000;stroke-width:0.8;" x="50.87" xlink:href="#m2f778b50c0" y="105.367222"/>
      </g>
     </g>
     <g id="text_12">
      <!-- 60 -->
      <defs>
       <path d="M 33.015625 40.375 
Q 26.375 40.375 22.484375 35.828125 
Q 18.609375 31.296875 18.609375 23.390625 
Q 18.609375 15.53125 22.484375 10.953125 
Q 26.375 6.390625 33.015625 6.390625 
Q 39.65625 6.390625 43.53125 10.953125 
Q 47.40625 15.53125 47.40625 23.390625 
Q 47.40625 31.296875 43.53125 35.828125 
Q 39.65625 40.375 33.015625 40.375 
M 52.59375 71.296875 
L 52.59375 62.3125 
Q 48.875 64.0625 45.09375 64.984375 
Q 41.3125 65.921875 37.59375 65.921875 
Q 27.828125 65.921875 22.671875 59.328125 
Q 17.53125 52.734375 16.796875 39.40625 
Q 19.671875 43.65625 24.015625 45.921875 
Q 28.375 48.1875 33.59375 48.1875 
Q 44.578125 48.1875 50.953125 41.515625 
Q 57.328125 34.859375 57.328125 23.390625 
Q 57.328125 12.15625 50.6875 5.359375 
Q 44.046875 -1.421875 33.015625 -1.421875 
Q 20.359375 -1.421875 13.671875 8.265625 
Q 6.984375 17.96875 6.984375 36.375 
Q 6.984375 53.65625 15.1875 63.9375 
Q 23.390625 74.21875 37.203125 74.21875 
Q 40.921875 74.21875 44.703125 73.484375 
Q 48.484375 72.75 52.59375 71.296875 
" id="DejaVuSans-36"/>
      </defs>
      <g transform="translate(31.145 109.166441)scale(0.1 -0.1)">
       <use xlink:href="#DejaVuSans-36"/>
       <use x="63.623047" xlink:href="#DejaVuSans-30"/>
      </g>
     </g>
    </g>
    <g id="ytick_5">
     <g id="line2d_12">
      <g>
       <use style="stroke:#000000;stroke-width:0.8;" x="50.87" xlink:href="#m2f778b50c0" y="77.045"/>
      </g>
     </g>
     <g id="text_13">
      <!-- 80 -->
      <defs>
       <path d="M 31.78125 34.625 
Q 24.75 34.625 20.71875 30.859375 
Q 16.703125 27.09375 16.703125 20.515625 
Q 16.703125 13.921875 20.71875 10.15625 
Q 24.75 6.390625 31.78125 6.390625 
Q 38.8125 6.390625 42.859375 10.171875 
Q 46.921875 13.96875 46.921875 20.515625 
Q 46.921875 27.09375 42.890625 30.859375 
Q 38.875 34.625 31.78125 34.625 
M 21.921875 38.8125 
Q 15.578125 40.375 12.03125 44.71875 
Q 8.5 49.078125 8.5 55.328125 
Q 8.5 64.0625 14.71875 69.140625 
Q 20.953125 74.21875 31.78125 74.21875 
Q 42.671875 74.21875 48.875 69.140625 
Q 55.078125 64.0625 55.078125 55.328125 
Q 55.078125 49.078125 51.53125 44.71875 
Q 48 40.375 41.703125 38.8125 
Q 48.828125 37.15625 52.796875 32.3125 
Q 56.78125 27.484375 56.78125 20.515625 
Q 56.78125 9.90625 50.3125 4.234375 
Q 43.84375 -1.421875 31.78125 -1.421875 
Q 19.734375 -1.421875 13.25 4.234375 
Q 6.78125 9.90625 6.78125 20.515625 
Q 6.78125 27.484375 10.78125 32.3125 
Q 14.796875 37.15625 21.921875 38.8125 
M 18.3125 54.390625 
Q 18.3125 48.734375 21.84375 45.5625 
Q 25.390625 42.390625 31.78125 42.390625 
Q 38.140625 42.390625 41.71875 45.5625 
Q 45.3125 48.734375 45.3125 54.390625 
Q 45.3125 60.0625 41.71875 63.234375 
Q 38.140625 66.40625 31.78125 66.40625 
Q 25.390625 66.40625 21.84375 63.234375 
Q 18.3125 60.0625 18.3125 54.390625 
" id="DejaVuSans-38"/>
      </defs>
      <g transform="translate(31.145 80.844219)scale(0.1 -0.1)">
       <use xlink:href="#DejaVuSans-38"/>
       <use x="63.623047" xlink:href="#DejaVuSans-30"/>
      </g>
     </g>
    </g>
    <g id="ytick_6">
     <g id="line2d_13">
      <g>
       <use style="stroke:#000000;stroke-width:0.8;" x="50.87" xlink:href="#m2f778b50c0" y="48.722778"/>
      </g>
     </g>
     <g id="text_14">
      <!-- 100 -->
      <g transform="translate(24.7825 52.521997)scale(0.1 -0.1)">
       <use xlink:href="#DejaVuSans-31"/>
       <use x="63.623047" xlink:href="#DejaVuSans-30"/>
       <use x="127.246094" xlink:href="#DejaVuSans-30"/>
      </g>
     </g>
    </g>
    <g id="ytick_7">
     <g id="line2d_14">
      <g>
       <use style="stroke:#000000;stroke-width:0.8;" x="50.87" xlink:href="#m2f778b50c0" y="20.400556"/>
      </g>
     </g>
     <g id="text_15">
      <!-- 120 -->
      <g transform="translate(24.7825 24.199774)scale(0.1 -0.1)">
       <use xlink:href="#DejaVuSans-31"/>
       <use x="63.623047" xlink:href="#DejaVuSans-32"/>
       <use x="127.246094" xlink:href="#DejaVuSans-30"/>
      </g>
     </g>
    </g>
    <g id="text_16">
     <!-- Number of parameters &gt; 1e-5 -->
     <defs>
      <path d="M 18.109375 8.203125 
L 18.109375 -20.796875 
L 9.078125 -20.796875 
L 9.078125 54.6875 
L 18.109375 54.6875 
L 18.109375 46.390625 
Q 20.953125 51.265625 25.265625 53.625 
Q 29.59375 56 35.59375 56 
Q 45.5625 56 51.78125 48.09375 
Q 58.015625 40.1875 58.015625 27.296875 
Q 58.015625 14.40625 51.78125 6.484375 
Q 45.5625 -1.421875 35.59375 -1.421875 
Q 29.59375 -1.421875 25.265625 0.953125 
Q 20.953125 3.328125 18.109375 8.203125 
M 48.6875 27.296875 
Q 48.6875 37.203125 44.609375 42.84375 
Q 40.53125 48.484375 33.40625 48.484375 
Q 26.265625 48.484375 22.1875 42.84375 
Q 18.109375 37.203125 18.109375 27.296875 
Q 18.109375 17.390625 22.1875 11.75 
Q 26.265625 6.109375 33.40625 6.109375 
Q 40.53125 6.109375 44.609375 11.75 
Q 48.6875 17.390625 48.6875 27.296875 
" id="DejaVuSans-70"/>
      <path d="M 10.59375 49.21875 
L 10.59375 58.109375 
L 73.1875 35.40625 
L 73.1875 27.296875 
L 10.59375 4.59375 
L 10.59375 13.484375 
L 60.890625 31.296875 
z
" id="DejaVuSans-3e"/>
      <path d="M 4.890625 31.390625 
L 31.203125 31.390625 
L 31.203125 23.390625 
L 4.890625 23.390625 
z
" id="DejaVuSans-2d"/>
     </defs>
     <g transform="translate(18.702813 190.976094)rotate(-90)scale(0.1 -0.1)">
      <use xlink:href="#DejaVuSans-4e"/>
      <use x="74.804688" xlink:href="#DejaVuSans-75"/>
      <use x="138.183594" xlink:href="#DejaVuSans-6d"/>
      <use x="235.595703" xlink:href="#DejaVuSans-62"/>
      <use x="299.072266" xlink:href="#DejaVuSans-65"/>
      <use x="360.595703" xlink:href="#DejaVuSans-72"/>
      <use x="401.708984" xlink:href="#DejaVuSans-20"/>
      <use x="433.496094" xlink:href="#DejaVuSans-6f"/>
      <use x="494.677734" xlink:href="#DejaVuSans-66"/>
      <use x="529.882812" xlink:href="#DejaVuSans-20"/>
      <use x="561.669922" xlink:href="#DejaVuSans-70"/>
      <use x="625.146484" xlink:href="#DejaVuSans-61"/>
      <use x="686.425781" xlink:href="#DejaVuSans-72"/>
      <use x="727.539062" xlink:href="#DejaVuSans-61"/>
      <use x="788.818359" xlink:href="#DejaVuSans-6d"/>
      <use x="886.230469" xlink:href="#DejaVuSans-65"/>
      <use x="947.753906" xlink:href="#DejaVuSans-74"/>
      <use x="986.962891" xlink:href="#DejaVuSans-65"/>
      <use x="1048.486328" xlink:href="#DejaVuSans-72"/>
      <use x="1089.599609" xlink:href="#DejaVuSans-73"/>
      <use x="1141.699219" xlink:href="#DejaVuSans-20"/>
      <use x="1173.486328" xlink:href="#DejaVuSans-3e"/>
      <use x="1257.275391" xlink:href="#DejaVuSans-20"/>
      <use x="1289.0625" xlink:href="#DejaVuSans-31"/>
      <use x="1352.685547" xlink:href="#DejaVuSans-65"/>
      <use x="1414.208984" xlink:href="#DejaVuSans-2d"/>
      <use x="1450.292969" xlink:href="#DejaVuSans-35"/>
     </g>
    </g>
   </g>
   <g id="line2d_15">
    <path clip-path="url(#pf037751e4c)" d="M 62.090455 23.091167 
L 69.329457 24.082444 
L 76.56846 23.940833 
L 83.807463 23.657611 
L 91.046466 24.932111 
L 98.285469 24.7905 
L 105.524472 22.949556 
L 112.763475 23.091167 
L 120.002478 23.374389 
L 127.241481 23.232778 
L 134.480484 22.949556 
L 141.719487 23.232778 
L 148.95849 23.091167 
L 156.197493 23.374389 
L 163.436496 23.516 
L 170.675499 23.516 
L 177.914501 23.940833 
L 185.153504 23.940833 
L 192.392507 22.807944 
L 199.63151 23.091167 
L 206.870513 23.940833 
L 214.109516 22.949556 
L 221.348519 23.091167 
L 228.587522 22.807944 
L 235.826525 23.374389 
L 243.065528 24.224056 
L 250.304531 22.949556 
L 257.543534 23.374389 
L 264.782537 23.799222 
L 272.02154 24.082444 
L 279.260543 23.091167 
L 286.499545 24.082444 
" style="fill:none;stroke:#1f77b4;stroke-linecap:square;stroke-width:1.5;"/>
    <defs>
     <path d="M 0 3 
C 0.795609 3 1.55874 2.683901 2.12132 2.12132 
C 2.683901 1.55874 3 0.795609 3 0 
C 3 -0.795609 2.683901 -1.55874 2.12132 -2.12132 
C 1.55874 -2.683901 0.795609 -3 0 -3 
C -0.795609 -3 -1.55874 -2.683901 -2.12132 -2.12132 
C -2.683901 -1.55874 -3 -0.795609 -3 0 
C -3 0.795609 -2.683901 1.55874 -2.12132 2.12132 
C -1.55874 2.683901 -0.795609 3 0 3 
z
" id="md5d6b5d61f" style="stroke:#1f77b4;"/>
    </defs>
    <g clip-path="url(#pf037751e4c)">
     <use style="fill:#1f77b4;stroke:#1f77b4;" x="62.090455" xlink:href="#md5d6b5d61f" y="23.091167"/>
     <use style="fill:#1f77b4;stroke:#1f77b4;" x="69.329457" xlink:href="#md5d6b5d61f" y="24.082444"/>
     <use style="fill:#1f77b4;stroke:#1f77b4;" x="76.56846" xlink:href="#md5d6b5d61f" y="23.940833"/>
     <use style="fill:#1f77b4;stroke:#1f77b4;" x="83.807463" xlink:href="#md5d6b5d61f" y="23.657611"/>
     <use style="fill:#1f77b4;stroke:#1f77b4;" x="91.046466" xlink:href="#md5d6b5d61f" y="24.932111"/>
     <use style="fill:#1f77b4;stroke:#1f77b4;" x="98.285469" xlink:href="#md5d6b5d61f" y="24.7905"/>
     <use style="fill:#1f77b4;stroke:#1f77b4;" x="105.524472" xlink:href="#md5d6b5d61f" y="22.949556"/>
     <use style="fill:#1f77b4;stroke:#1f77b4;" x="112.763475" xlink:href="#md5d6b5d61f" y="23.091167"/>
     <use style="fill:#1f77b4;stroke:#1f77b4;" x="120.002478" xlink:href="#md5d6b5d61f" y="23.374389"/>
     <use style="fill:#1f77b4;stroke:#1f77b4;" x="127.241481" xlink:href="#md5d6b5d61f" y="23.232778"/>
     <use style="fill:#1f77b4;stroke:#1f77b4;" x="134.480484" xlink:href="#md5d6b5d61f" y="22.949556"/>
     <use style="fill:#1f77b4;stroke:#1f77b4;" x="141.719487" xlink:href="#md5d6b5d61f" y="23.232778"/>
     <use style="fill:#1f77b4;stroke:#1f77b4;" x="148.95849" xlink:href="#md5d6b5d61f" y="23.091167"/>
     <use style="fill:#1f77b4;stroke:#1f77b4;" x="156.197493" xlink:href="#md5d6b5d61f" y="23.374389"/>
     <use style="fill:#1f77b4;stroke:#1f77b4;" x="163.436496" xlink:href="#md5d6b5d61f" y="23.516"/>
     <use style="fill:#1f77b4;stroke:#1f77b4;" x="170.675499" xlink:href="#md5d6b5d61f" y="23.516"/>
     <use style="fill:#1f77b4;stroke:#1f77b4;" x="177.914501" xlink:href="#md5d6b5d61f" y="23.940833"/>
     <use style="fill:#1f77b4;stroke:#1f77b4;" x="185.153504" xlink:href="#md5d6b5d61f" y="23.940833"/>
     <use style="fill:#1f77b4;stroke:#1f77b4;" x="192.392507" xlink:href="#md5d6b5d61f" y="22.807944"/>
     <use style="fill:#1f77b4;stroke:#1f77b4;" x="199.63151" xlink:href="#md5d6b5d61f" y="23.091167"/>
     <use style="fill:#1f77b4;stroke:#1f77b4;" x="206.870513" xlink:href="#md5d6b5d61f" y="23.940833"/>
     <use style="fill:#1f77b4;stroke:#1f77b4;" x="214.109516" xlink:href="#md5d6b5d61f" y="22.949556"/>
     <use style="fill:#1f77b4;stroke:#1f77b4;" x="221.348519" xlink:href="#md5d6b5d61f" y="23.091167"/>
     <use style="fill:#1f77b4;stroke:#1f77b4;" x="228.587522" xlink:href="#md5d6b5d61f" y="22.807944"/>
     <use style="fill:#1f77b4;stroke:#1f77b4;" x="235.826525" xlink:href="#md5d6b5d61f" y="23.374389"/>
     <use style="fill:#1f77b4;stroke:#1f77b4;" x="243.065528" xlink:href="#md5d6b5d61f" y="24.224056"/>
     <use style="fill:#1f77b4;stroke:#1f77b4;" x="250.304531" xlink:href="#md5d6b5d61f" y="22.949556"/>
     <use style="fill:#1f77b4;stroke:#1f77b4;" x="257.543534" xlink:href="#md5d6b5d61f" y="23.374389"/>
     <use style="fill:#1f77b4;stroke:#1f77b4;" x="264.782537" xlink:href="#md5d6b5d61f" y="23.799222"/>
     <use style="fill:#1f77b4;stroke:#1f77b4;" x="272.02154" xlink:href="#md5d6b5d61f" y="24.082444"/>
     <use style="fill:#1f77b4;stroke:#1f77b4;" x="279.260543" xlink:href="#md5d6b5d61f" y="23.091167"/>
     <use style="fill:#1f77b4;stroke:#1f77b4;" x="286.499545" xlink:href="#md5d6b5d61f" y="24.082444"/>
    </g>
   </g>
   <g id="line2d_16">
    <path clip-path="url(#pf037751e4c)" d="M 62.090455 22.099889 
L 69.329457 22.2415 
L 76.56846 21.958278 
L 83.807463 21.816667 
L 91.046466 22.099889 
L 98.285469 21.816667 
L 105.524472 21.816667 
L 112.763475 21.816667 
L 120.002478 21.958278 
L 127.241481 21.816667 
L 134.480484 21.816667 
L 141.719487 22.099889 
L 148.95849 21.958278 
L 156.197493 21.958278 
L 163.436496 21.958278 
L 170.675499 22.666333 
L 177.914501 22.2415 
L 185.153504 22.524722 
L 192.392507 22.949556 
L 199.63151 23.091167 
L 206.870513 22.666333 
L 214.109516 23.232778 
L 221.348519 22.807944 
L 228.587522 22.807944 
L 235.826525 23.232778 
L 243.065528 22.666333 
L 250.304531 22.666333 
L 257.543534 23.516 
L 264.782537 23.374389 
L 272.02154 23.232778 
L 279.260543 23.374389 
L 286.499545 22.949556 
" style="fill:none;stroke:#ff7f0e;stroke-linecap:square;stroke-width:1.5;"/>
    <defs>
     <path d="M -3 3 
L 3 3 
L 3 -3 
L -3 -3 
z
" id="m6c913fb9b0" style="stroke:#ff7f0e;stroke-linejoin:miter;"/>
    </defs>
    <g clip-path="url(#pf037751e4c)">
     <use style="fill:#ff7f0e;stroke:#ff7f0e;stroke-linejoin:miter;" x="62.090455" xlink:href="#m6c913fb9b0" y="22.099889"/>
     <use style="fill:#ff7f0e;stroke:#ff7f0e;stroke-linejoin:miter;" x="69.329457" xlink:href="#m6c913fb9b0" y="22.2415"/>
     <use style="fill:#ff7f0e;stroke:#ff7f0e;stroke-linejoin:miter;" x="76.56846" xlink:href="#m6c913fb9b0" y="21.958278"/>
     <use style="fill:#ff7f0e;stroke:#ff7f0e;stroke-linejoin:miter;" x="83.807463" xlink:href="#m6c913fb9b0" y="21.816667"/>
     <use style="fill:#ff7f0e;stroke:#ff7f0e;stroke-linejoin:miter;" x="91.046466" xlink:href="#m6c913fb9b0" y="22.099889"/>
     <use style="fill:#ff7f0e;stroke:#ff7f0e;stroke-linejoin:miter;" x="98.285469" xlink:href="#m6c913fb9b0" y="21.816667"/>
     <use style="fill:#ff7f0e;stroke:#ff7f0e;stroke-linejoin:miter;" x="105.524472" xlink:href="#m6c913fb9b0" y="21.816667"/>
     <use style="fill:#ff7f0e;stroke:#ff7f0e;stroke-linejoin:miter;" x="112.763475" xlink:href="#m6c913fb9b0" y="21.816667"/>
     <use style="fill:#ff7f0e;stroke:#ff7f0e;stroke-linejoin:miter;" x="120.002478" xlink:href="#m6c913fb9b0" y="21.958278"/>
     <use style="fill:#ff7f0e;stroke:#ff7f0e;stroke-linejoin:miter;" x="127.241481" xlink:href="#m6c913fb9b0" y="21.816667"/>
     <use style="fill:#ff7f0e;stroke:#ff7f0e;stroke-linejoin:miter;" x="134.480484" xlink:href="#m6c913fb9b0" y="21.816667"/>
     <use style="fill:#ff7f0e;stroke:#ff7f0e;stroke-linejoin:miter;" x="141.719487" xlink:href="#m6c913fb9b0" y="22.099889"/>
     <use style="fill:#ff7f0e;stroke:#ff7f0e;stroke-linejoin:miter;" x="148.95849" xlink:href="#m6c913fb9b0" y="21.958278"/>
     <use style="fill:#ff7f0e;stroke:#ff7f0e;stroke-linejoin:miter;" x="156.197493" xlink:href="#m6c913fb9b0" y="21.958278"/>
     <use style="fill:#ff7f0e;stroke:#ff7f0e;stroke-linejoin:miter;" x="163.436496" xlink:href="#m6c913fb9b0" y="21.958278"/>
     <use style="fill:#ff7f0e;stroke:#ff7f0e;stroke-linejoin:miter;" x="170.675499" xlink:href="#m6c913fb9b0" y="22.666333"/>
     <use style="fill:#ff7f0e;stroke:#ff7f0e;stroke-linejoin:miter;" x="177.914501" xlink:href="#m6c913fb9b0" y="22.2415"/>
     <use style="fill:#ff7f0e;stroke:#ff7f0e;stroke-linejoin:miter;" x="185.153504" xlink:href="#m6c913fb9b0" y="22.524722"/>
     <use style="fill:#ff7f0e;stroke:#ff7f0e;stroke-linejoin:miter;" x="192.392507" xlink:href="#m6c913fb9b0" y="22.949556"/>
     <use style="fill:#ff7f0e;stroke:#ff7f0e;stroke-linejoin:miter;" x="199.63151" xlink:href="#m6c913fb9b0" y="23.091167"/>
     <use style="fill:#ff7f0e;stroke:#ff7f0e;stroke-linejoin:miter;" x="206.870513" xlink:href="#m6c913fb9b0" y="22.666333"/>
     <use style="fill:#ff7f0e;stroke:#ff7f0e;stroke-linejoin:miter;" x="214.109516" xlink:href="#m6c913fb9b0" y="23.232778"/>
     <use style="fill:#ff7f0e;stroke:#ff7f0e;stroke-linejoin:miter;" x="221.348519" xlink:href="#m6c913fb9b0" y="22.807944"/>
     <use style="fill:#ff7f0e;stroke:#ff7f0e;stroke-linejoin:miter;" x="228.587522" xlink:href="#m6c913fb9b0" y="22.807944"/>
     <use style="fill:#ff7f0e;stroke:#ff7f0e;stroke-linejoin:miter;" x="235.826525" xlink:href="#m6c913fb9b0" y="23.232778"/>
     <use style="fill:#ff7f0e;stroke:#ff7f0e;stroke-linejoin:miter;" x="243.065528" xlink:href="#m6c913fb9b0" y="22.666333"/>
     <use style="fill:#ff7f0e;stroke:#ff7f0e;stroke-linejoin:miter;" x="250.304531" xlink:href="#m6c913fb9b0" y="22.666333"/>
     <use style="fill:#ff7f0e;stroke:#ff7f0e;stroke-linejoin:miter;" x="257.543534" xlink:href="#m6c913fb9b0" y="23.516"/>
     <use style="fill:#ff7f0e;stroke:#ff7f0e;stroke-linejoin:miter;" x="264.782537" xlink:href="#m6c913fb9b0" y="23.374389"/>
     <use style="fill:#ff7f0e;stroke:#ff7f0e;stroke-linejoin:miter;" x="272.02154" xlink:href="#m6c913fb9b0" y="23.232778"/>
     <use style="fill:#ff7f0e;stroke:#ff7f0e;stroke-linejoin:miter;" x="279.260543" xlink:href="#m6c913fb9b0" y="23.374389"/>
     <use style="fill:#ff7f0e;stroke:#ff7f0e;stroke-linejoin:miter;" x="286.499545" xlink:href="#m6c913fb9b0" y="22.949556"/>
    </g>
   </g>
   <g id="line2d_17">
    <path clip-path="url(#pf037751e4c)" d="M 62.090455 146.434444 
L 69.329457 155.214333 
L 76.56846 157.3385 
L 83.807463 149.833111 
L 91.046466 145.443167 
L 98.285469 139.353889 
L 105.524472 129.2995 
L 112.763475 121.086056 
L 120.002478 115.704833 
L 127.241481 107.633 
L 134.480484 103.951111 
L 141.719487 100.410833 
L 148.95849 95.171222 
L 156.197493 96.870556 
L 163.436496 95.596056 
L 170.675499 93.896722 
L 177.914501 85.824889 
L 185.153504 90.356444 
L 192.392507 92.622222 
L 199.63151 97.861833 
L 206.870513 88.940333 
L 214.109516 79.310778 
L 221.348519 81.293333 
L 228.587522 80.018833 
L 235.826525 84.408778 
L 243.065528 83.4175 
L 250.304531 79.594 
L 257.543534 86.674556 
L 264.782537 81.010111 
L 272.02154 81.718167 
L 279.260543 87.524222 
L 286.499545 87.524222 
" style="fill:none;stroke:#2ca02c;stroke-linecap:square;stroke-width:1.5;"/>
    <defs>
     <path d="M 0 -3 
L -3 3 
L 3 3 
z
" id="m0e92381d58" style="stroke:#2ca02c;stroke-linejoin:miter;"/>
    </defs>
    <g clip-path="url(#pf037751e4c)">
     <use style="fill:#2ca02c;stroke:#2ca02c;stroke-linejoin:miter;" x="62.090455" xlink:href="#m0e92381d58" y="146.434444"/>
     <use style="fill:#2ca02c;stroke:#2ca02c;stroke-linejoin:miter;" x="69.329457" xlink:href="#m0e92381d58" y="155.214333"/>
     <use style="fill:#2ca02c;stroke:#2ca02c;stroke-linejoin:miter;" x="76.56846" xlink:href="#m0e92381d58" y="157.3385"/>
     <use style="fill:#2ca02c;stroke:#2ca02c;stroke-linejoin:miter;" x="83.807463" xlink:href="#m0e92381d58" y="149.833111"/>
     <use style="fill:#2ca02c;stroke:#2ca02c;stroke-linejoin:miter;" x="91.046466" xlink:href="#m0e92381d58" y="145.443167"/>
     <use style="fill:#2ca02c;stroke:#2ca02c;stroke-linejoin:miter;" x="98.285469" xlink:href="#m0e92381d58" y="139.353889"/>
     <use style="fill:#2ca02c;stroke:#2ca02c;stroke-linejoin:miter;" x="105.524472" xlink:href="#m0e92381d58" y="129.2995"/>
     <use style="fill:#2ca02c;stroke:#2ca02c;stroke-linejoin:miter;" x="112.763475" xlink:href="#m0e92381d58" y="121.086056"/>
     <use style="fill:#2ca02c;stroke:#2ca02c;stroke-linejoin:miter;" x="120.002478" xlink:href="#m0e92381d58" y="115.704833"/>
     <use style="fill:#2ca02c;stroke:#2ca02c;stroke-linejoin:miter;" x="127.241481" xlink:href="#m0e92381d58" y="107.633"/>
     <use style="fill:#2ca02c;stroke:#2ca02c;stroke-linejoin:miter;" x="134.480484" xlink:href="#m0e92381d58" y="103.951111"/>
     <use style="fill:#2ca02c;stroke:#2ca02c;stroke-linejoin:miter;" x="141.719487" xlink:href="#m0e92381d58" y="100.410833"/>
     <use style="fill:#2ca02c;stroke:#2ca02c;stroke-linejoin:miter;" x="148.95849" xlink:href="#m0e92381d58" y="95.171222"/>
     <use style="fill:#2ca02c;stroke:#2ca02c;stroke-linejoin:miter;" x="156.197493" xlink:href="#m0e92381d58" y="96.870556"/>
     <use style="fill:#2ca02c;stroke:#2ca02c;stroke-linejoin:miter;" x="163.436496" xlink:href="#m0e92381d58" y="95.596056"/>
     <use style="fill:#2ca02c;stroke:#2ca02c;stroke-linejoin:miter;" x="170.675499" xlink:href="#m0e92381d58" y="93.896722"/>
     <use style="fill:#2ca02c;stroke:#2ca02c;stroke-linejoin:miter;" x="177.914501" xlink:href="#m0e92381d58" y="85.824889"/>
     <use style="fill:#2ca02c;stroke:#2ca02c;stroke-linejoin:miter;" x="185.153504" xlink:href="#m0e92381d58" y="90.356444"/>
     <use style="fill:#2ca02c;stroke:#2ca02c;stroke-linejoin:miter;" x="192.392507" xlink:href="#m0e92381d58" y="92.622222"/>
     <use style="fill:#2ca02c;stroke:#2ca02c;stroke-linejoin:miter;" x="199.63151" xlink:href="#m0e92381d58" y="97.861833"/>
     <use style="fill:#2ca02c;stroke:#2ca02c;stroke-linejoin:miter;" x="206.870513" xlink:href="#m0e92381d58" y="88.940333"/>
     <use style="fill:#2ca02c;stroke:#2ca02c;stroke-linejoin:miter;" x="214.109516" xlink:href="#m0e92381d58" y="79.310778"/>
     <use style="fill:#2ca02c;stroke:#2ca02c;stroke-linejoin:miter;" x="221.348519" xlink:href="#m0e92381d58" y="81.293333"/>
     <use style="fill:#2ca02c;stroke:#2ca02c;stroke-linejoin:miter;" x="228.587522" xlink:href="#m0e92381d58" y="80.018833"/>
     <use style="fill:#2ca02c;stroke:#2ca02c;stroke-linejoin:miter;" x="235.826525" xlink:href="#m0e92381d58" y="84.408778"/>
     <use style="fill:#2ca02c;stroke:#2ca02c;stroke-linejoin:miter;" x="243.065528" xlink:href="#m0e92381d58" y="83.4175"/>
     <use style="fill:#2ca02c;stroke:#2ca02c;stroke-linejoin:miter;" x="250.304531" xlink:href="#m0e92381d58" y="79.594"/>
     <use style="fill:#2ca02c;stroke:#2ca02c;stroke-linejoin:miter;" x="257.543534" xlink:href="#m0e92381d58" y="86.674556"/>
     <use style="fill:#2ca02c;stroke:#2ca02c;stroke-linejoin:miter;" x="264.782537" xlink:href="#m0e92381d58" y="81.010111"/>
     <use style="fill:#2ca02c;stroke:#2ca02c;stroke-linejoin:miter;" x="272.02154" xlink:href="#m0e92381d58" y="81.718167"/>
     <use style="fill:#2ca02c;stroke:#2ca02c;stroke-linejoin:miter;" x="279.260543" xlink:href="#m0e92381d58" y="87.524222"/>
     <use style="fill:#2ca02c;stroke:#2ca02c;stroke-linejoin:miter;" x="286.499545" xlink:href="#m0e92381d58" y="87.524222"/>
    </g>
   </g>
   <g id="line2d_18">
    <path clip-path="url(#pf037751e4c)" d="M 62.090455 21.958278 
L 69.329457 21.958278 
L 76.56846 21.958278 
L 83.807463 21.816667 
L 91.046466 21.816667 
L 98.285469 21.958278 
L 105.524472 21.958278 
L 112.763475 21.816667 
L 120.002478 21.816667 
L 127.241481 21.958278 
L 134.480484 22.099889 
L 141.719487 21.816667 
L 148.95849 21.958278 
L 156.197493 22.524722 
L 163.436496 22.099889 
L 170.675499 22.949556 
L 177.914501 22.383111 
L 185.153504 23.091167 
L 192.392507 22.2415 
L 199.63151 23.374389 
L 206.870513 22.666333 
L 214.109516 23.657611 
L 221.348519 22.2415 
L 228.587522 23.091167 
L 235.826525 23.091167 
L 243.065528 22.949556 
L 250.304531 22.949556 
L 257.543534 23.091167 
L 264.782537 23.091167 
L 272.02154 23.374389 
L 279.260543 22.949556 
L 286.499545 23.940833 
" style="fill:none;stroke:#d62728;stroke-linecap:square;stroke-width:1.5;"/>
    <defs>
     <path d="M -0 3 
L 3 -3 
L -3 -3 
z
" id="m29449e14f6" style="stroke:#d62728;stroke-linejoin:miter;"/>
    </defs>
    <g clip-path="url(#pf037751e4c)">
     <use style="fill:#d62728;stroke:#d62728;stroke-linejoin:miter;" x="62.090455" xlink:href="#m29449e14f6" y="21.958278"/>
     <use style="fill:#d62728;stroke:#d62728;stroke-linejoin:miter;" x="69.329457" xlink:href="#m29449e14f6" y="21.958278"/>
     <use style="fill:#d62728;stroke:#d62728;stroke-linejoin:miter;" x="76.56846" xlink:href="#m29449e14f6" y="21.958278"/>
     <use style="fill:#d62728;stroke:#d62728;stroke-linejoin:miter;" x="83.807463" xlink:href="#m29449e14f6" y="21.816667"/>
     <use style="fill:#d62728;stroke:#d62728;stroke-linejoin:miter;" x="91.046466" xlink:href="#m29449e14f6" y="21.816667"/>
     <use style="fill:#d62728;stroke:#d62728;stroke-linejoin:miter;" x="98.285469" xlink:href="#m29449e14f6" y="21.958278"/>
     <use style="fill:#d62728;stroke:#d62728;stroke-linejoin:miter;" x="105.524472" xlink:href="#m29449e14f6" y="21.958278"/>
     <use style="fill:#d62728;stroke:#d62728;stroke-linejoin:miter;" x="112.763475" xlink:href="#m29449e14f6" y="21.816667"/>
     <use style="fill:#d62728;stroke:#d62728;stroke-linejoin:miter;" x="120.002478" xlink:href="#m29449e14f6" y="21.816667"/>
     <use style="fill:#d62728;stroke:#d62728;stroke-linejoin:miter;" x="127.241481" xlink:href="#m29449e14f6" y="21.958278"/>
     <use style="fill:#d62728;stroke:#d62728;stroke-linejoin:miter;" x="134.480484" xlink:href="#m29449e14f6" y="22.099889"/>
     <use style="fill:#d62728;stroke:#d62728;stroke-linejoin:miter;" x="141.719487" xlink:href="#m29449e14f6" y="21.816667"/>
     <use style="fill:#d62728;stroke:#d62728;stroke-linejoin:miter;" x="148.95849" xlink:href="#m29449e14f6" y="21.958278"/>
     <use style="fill:#d62728;stroke:#d62728;stroke-linejoin:miter;" x="156.197493" xlink:href="#m29449e14f6" y="22.524722"/>
     <use style="fill:#d62728;stroke:#d62728;stroke-linejoin:miter;" x="163.436496" xlink:href="#m29449e14f6" y="22.099889"/>
     <use style="fill:#d62728;stroke:#d62728;stroke-linejoin:miter;" x="170.675499" xlink:href="#m29449e14f6" y="22.949556"/>
     <use style="fill:#d62728;stroke:#d62728;stroke-linejoin:miter;" x="177.914501" xlink:href="#m29449e14f6" y="22.383111"/>
     <use style="fill:#d62728;stroke:#d62728;stroke-linejoin:miter;" x="185.153504" xlink:href="#m29449e14f6" y="23.091167"/>
     <use style="fill:#d62728;stroke:#d62728;stroke-linejoin:miter;" x="192.392507" xlink:href="#m29449e14f6" y="22.2415"/>
     <use style="fill:#d62728;stroke:#d62728;stroke-linejoin:miter;" x="199.63151" xlink:href="#m29449e14f6" y="23.374389"/>
     <use style="fill:#d62728;stroke:#d62728;stroke-linejoin:miter;" x="206.870513" xlink:href="#m29449e14f6" y="22.666333"/>
     <use style="fill:#d62728;stroke:#d62728;stroke-linejoin:miter;" x="214.109516" xlink:href="#m29449e14f6" y="23.657611"/>
     <use style="fill:#d62728;stroke:#d62728;stroke-linejoin:miter;" x="221.348519" xlink:href="#m29449e14f6" y="22.2415"/>
     <use style="fill:#d62728;stroke:#d62728;stroke-linejoin:miter;" x="228.587522" xlink:href="#m29449e14f6" y="23.091167"/>
     <use style="fill:#d62728;stroke:#d62728;stroke-linejoin:miter;" x="235.826525" xlink:href="#m29449e14f6" y="23.091167"/>
     <use style="fill:#d62728;stroke:#d62728;stroke-linejoin:miter;" x="243.065528" xlink:href="#m29449e14f6" y="22.949556"/>
     <use style="fill:#d62728;stroke:#d62728;stroke-linejoin:miter;" x="250.304531" xlink:href="#m29449e14f6" y="22.949556"/>
     <use style="fill:#d62728;stroke:#d62728;stroke-linejoin:miter;" x="257.543534" xlink:href="#m29449e14f6" y="23.091167"/>
     <use style="fill:#d62728;stroke:#d62728;stroke-linejoin:miter;" x="264.782537" xlink:href="#m29449e14f6" y="23.091167"/>
     <use style="fill:#d62728;stroke:#d62728;stroke-linejoin:miter;" x="272.02154" xlink:href="#m29449e14f6" y="23.374389"/>
     <use style="fill:#d62728;stroke:#d62728;stroke-linejoin:miter;" x="279.260543" xlink:href="#m29449e14f6" y="22.949556"/>
     <use style="fill:#d62728;stroke:#d62728;stroke-linejoin:miter;" x="286.499545" xlink:href="#m29449e14f6" y="23.940833"/>
    </g>
   </g>
   <g id="patch_3">
    <path d="M 50.87 217.24 
L 50.87 13.32 
" style="fill:none;stroke:#000000;stroke-linecap:square;stroke-linejoin:miter;stroke-width:0.8;"/>
   </g>
   <g id="patch_4">
    <path d="M 297.72 217.24 
L 297.72 13.32 
" style="fill:none;stroke:#000000;stroke-linecap:square;stroke-linejoin:miter;stroke-width:0.8;"/>
   </g>
   <g id="patch_5">
    <path d="M 50.87 217.24 
L 297.72 217.24 
" style="fill:none;stroke:#000000;stroke-linecap:square;stroke-linejoin:miter;stroke-width:0.8;"/>
   </g>
   <g id="patch_6">
    <path d="M 50.87 13.32 
L 297.72 13.32 
" style="fill:none;stroke:#000000;stroke-linecap:square;stroke-linejoin:miter;stroke-width:0.8;"/>
   </g>
   <g id="legend_1">
    <g id="patch_7">
     <path d="M 128.587187 212.24 
L 290.72 212.24 
Q 292.72 212.24 292.72 210.24 
L 292.72 152.5275 
Q 292.72 150.5275 290.72 150.5275 
L 128.587187 150.5275 
Q 126.587187 150.5275 126.587187 152.5275 
L 126.587187 210.24 
Q 126.587187 212.24 128.587187 212.24 
z
" style="fill:#ffffff;opacity:0.8;stroke:#cccccc;stroke-linejoin:miter;"/>
    </g>
    <g id="line2d_19">
     <path d="M 130.587187 158.625937 
L 150.587187 158.625937 
" style="fill:none;stroke:#1f77b4;stroke-linecap:square;stroke-width:1.5;"/>
    </g>
    <g id="line2d_20">
     <g>
      <use style="fill:#1f77b4;stroke:#1f77b4;" x="140.587187" xlink:href="#md5d6b5d61f" y="158.625937"/>
     </g>
    </g>
    <g id="text_17">
     <!-- ARDR -->
     <defs>
      <path d="M 34.1875 63.1875 
L 20.796875 26.90625 
L 47.609375 26.90625 
z
M 28.609375 72.90625 
L 39.796875 72.90625 
L 67.578125 0 
L 57.328125 0 
L 50.6875 18.703125 
L 17.828125 18.703125 
L 11.1875 0 
L 0.78125 0 
z
" id="DejaVuSans-41"/>
      <path d="M 44.390625 34.1875 
Q 47.5625 33.109375 50.5625 29.59375 
Q 53.5625 26.078125 56.59375 19.921875 
L 66.609375 0 
L 56 0 
L 46.6875 18.703125 
Q 43.0625 26.03125 39.671875 28.421875 
Q 36.28125 30.8125 30.421875 30.8125 
L 19.671875 30.8125 
L 19.671875 0 
L 9.8125 0 
L 9.8125 72.90625 
L 32.078125 72.90625 
Q 44.578125 72.90625 50.734375 67.671875 
Q 56.890625 62.453125 56.890625 51.90625 
Q 56.890625 45.015625 53.6875 40.46875 
Q 50.484375 35.9375 44.390625 34.1875 
M 19.671875 64.796875 
L 19.671875 38.921875 
L 32.078125 38.921875 
Q 39.203125 38.921875 42.84375 42.21875 
Q 46.484375 45.515625 46.484375 51.90625 
Q 46.484375 58.296875 42.84375 61.546875 
Q 39.203125 64.796875 32.078125 64.796875 
z
" id="DejaVuSans-52"/>
      <path d="M 19.671875 64.796875 
L 19.671875 8.109375 
L 31.59375 8.109375 
Q 46.6875 8.109375 53.6875 14.9375 
Q 60.6875 21.78125 60.6875 36.53125 
Q 60.6875 51.171875 53.6875 57.984375 
Q 46.6875 64.796875 31.59375 64.796875 
z
M 9.8125 72.90625 
L 30.078125 72.90625 
Q 51.265625 72.90625 61.171875 64.09375 
Q 71.09375 55.28125 71.09375 36.53125 
Q 71.09375 17.671875 61.125 8.828125 
Q 51.171875 0 30.078125 0 
L 9.8125 0 
z
" id="DejaVuSans-44"/>
     </defs>
     <g transform="translate(158.587187 162.125937)scale(0.1 -0.1)">
      <use xlink:href="#DejaVuSans-41"/>
      <use x="68.408203" xlink:href="#DejaVuSans-52"/>
      <use x="137.890625" xlink:href="#DejaVuSans-44"/>
      <use x="214.892578" xlink:href="#DejaVuSans-52"/>
     </g>
    </g>
    <g id="line2d_21">
     <path d="M 130.587187 173.304062 
L 150.587187 173.304062 
" style="fill:none;stroke:#ff7f0e;stroke-linecap:square;stroke-width:1.5;"/>
    </g>
    <g id="line2d_22">
     <g>
      <use style="fill:#ff7f0e;stroke:#ff7f0e;stroke-linejoin:miter;" x="140.587187" xlink:href="#m6c913fb9b0" y="173.304062"/>
     </g>
    </g>
    <g id="text_18">
     <!-- Bayesian ridge regression -->
     <defs>
      <path d="M 19.671875 34.8125 
L 19.671875 8.109375 
L 35.5 8.109375 
Q 43.453125 8.109375 47.28125 11.40625 
Q 51.125 14.703125 51.125 21.484375 
Q 51.125 28.328125 47.28125 31.5625 
Q 43.453125 34.8125 35.5 34.8125 
z
M 19.671875 64.796875 
L 19.671875 42.828125 
L 34.28125 42.828125 
Q 41.5 42.828125 45.03125 45.53125 
Q 48.578125 48.25 48.578125 53.8125 
Q 48.578125 59.328125 45.03125 62.0625 
Q 41.5 64.796875 34.28125 64.796875 
z
M 9.8125 72.90625 
L 35.015625 72.90625 
Q 46.296875 72.90625 52.390625 68.21875 
Q 58.5 63.53125 58.5 54.890625 
Q 58.5 48.1875 55.375 44.234375 
Q 52.25 40.28125 46.1875 39.3125 
Q 53.46875 37.75 57.5 32.78125 
Q 61.53125 27.828125 61.53125 20.40625 
Q 61.53125 10.640625 54.890625 5.3125 
Q 48.25 0 35.984375 0 
L 9.8125 0 
z
" id="DejaVuSans-42"/>
      <path d="M 32.171875 -5.078125 
Q 28.375 -14.84375 24.75 -17.8125 
Q 21.140625 -20.796875 15.09375 -20.796875 
L 7.90625 -20.796875 
L 7.90625 -13.28125 
L 13.1875 -13.28125 
Q 16.890625 -13.28125 18.9375 -11.515625 
Q 21 -9.765625 23.484375 -3.21875 
L 25.09375 0.875 
L 2.984375 54.6875 
L 12.5 54.6875 
L 29.59375 11.921875 
L 46.6875 54.6875 
L 56.203125 54.6875 
z
" id="DejaVuSans-79"/>
      <path d="M 45.40625 46.390625 
L 45.40625 75.984375 
L 54.390625 75.984375 
L 54.390625 0 
L 45.40625 0 
L 45.40625 8.203125 
Q 42.578125 3.328125 38.25 0.953125 
Q 33.9375 -1.421875 27.875 -1.421875 
Q 17.96875 -1.421875 11.734375 6.484375 
Q 5.515625 14.40625 5.515625 27.296875 
Q 5.515625 40.1875 11.734375 48.09375 
Q 17.96875 56 27.875 56 
Q 33.9375 56 38.25 53.625 
Q 42.578125 51.265625 45.40625 46.390625 
M 14.796875 27.296875 
Q 14.796875 17.390625 18.875 11.75 
Q 22.953125 6.109375 30.078125 6.109375 
Q 37.203125 6.109375 41.296875 11.75 
Q 45.40625 17.390625 45.40625 27.296875 
Q 45.40625 37.203125 41.296875 42.84375 
Q 37.203125 48.484375 30.078125 48.484375 
Q 22.953125 48.484375 18.875 42.84375 
Q 14.796875 37.203125 14.796875 27.296875 
" id="DejaVuSans-64"/>
     </defs>
     <g transform="translate(158.587187 176.804062)scale(0.1 -0.1)">
      <use xlink:href="#DejaVuSans-42"/>
      <use x="68.603516" xlink:href="#DejaVuSans-61"/>
      <use x="129.882812" xlink:href="#DejaVuSans-79"/>
      <use x="189.0625" xlink:href="#DejaVuSans-65"/>
      <use x="250.585938" xlink:href="#DejaVuSans-73"/>
      <use x="302.685547" xlink:href="#DejaVuSans-69"/>
      <use x="330.46875" xlink:href="#DejaVuSans-61"/>
      <use x="391.748047" xlink:href="#DejaVuSans-6e"/>
      <use x="455.126953" xlink:href="#DejaVuSans-20"/>
      <use x="486.914062" xlink:href="#DejaVuSans-72"/>
      <use x="528.027344" xlink:href="#DejaVuSans-69"/>
      <use x="555.810547" xlink:href="#DejaVuSans-64"/>
      <use x="619.287109" xlink:href="#DejaVuSans-67"/>
      <use x="682.763672" xlink:href="#DejaVuSans-65"/>
      <use x="744.287109" xlink:href="#DejaVuSans-20"/>
      <use x="776.074219" xlink:href="#DejaVuSans-72"/>
      <use x="817.15625" xlink:href="#DejaVuSans-65"/>
      <use x="878.679688" xlink:href="#DejaVuSans-67"/>
      <use x="942.15625" xlink:href="#DejaVuSans-72"/>
      <use x="983.238281" xlink:href="#DejaVuSans-65"/>
      <use x="1044.761719" xlink:href="#DejaVuSans-73"/>
      <use x="1096.861328" xlink:href="#DejaVuSans-73"/>
      <use x="1148.960938" xlink:href="#DejaVuSans-69"/>
      <use x="1176.744141" xlink:href="#DejaVuSans-6f"/>
      <use x="1237.925781" xlink:href="#DejaVuSans-6e"/>
     </g>
    </g>
    <g id="line2d_23">
     <path d="M 130.587187 187.982187 
L 150.587187 187.982187 
" style="fill:none;stroke:#2ca02c;stroke-linecap:square;stroke-width:1.5;"/>
    </g>
    <g id="line2d_24">
     <g>
      <use style="fill:#2ca02c;stroke:#2ca02c;stroke-linejoin:miter;" x="140.587187" xlink:href="#m0e92381d58" y="187.982187"/>
     </g>
    </g>
    <g id="text_19">
     <!-- LASSO -->
     <defs>
      <path d="M 9.8125 72.90625 
L 19.671875 72.90625 
L 19.671875 8.296875 
L 55.171875 8.296875 
L 55.171875 0 
L 9.8125 0 
z
" id="DejaVuSans-4c"/>
      <path d="M 53.515625 70.515625 
L 53.515625 60.890625 
Q 47.90625 63.578125 42.921875 64.890625 
Q 37.9375 66.21875 33.296875 66.21875 
Q 25.25 66.21875 20.875 63.09375 
Q 16.5 59.96875 16.5 54.203125 
Q 16.5 49.359375 19.40625 46.890625 
Q 22.3125 44.4375 30.421875 42.921875 
L 36.375 41.703125 
Q 47.40625 39.59375 52.65625 34.296875 
Q 57.90625 29 57.90625 20.125 
Q 57.90625 9.515625 50.796875 4.046875 
Q 43.703125 -1.421875 29.984375 -1.421875 
Q 24.8125 -1.421875 18.96875 -0.25 
Q 13.140625 0.921875 6.890625 3.21875 
L 6.890625 13.375 
Q 12.890625 10.015625 18.65625 8.296875 
Q 24.421875 6.59375 29.984375 6.59375 
Q 38.421875 6.59375 43.015625 9.90625 
Q 47.609375 13.234375 47.609375 19.390625 
Q 47.609375 24.75 44.3125 27.78125 
Q 41.015625 30.8125 33.5 32.328125 
L 27.484375 33.5 
Q 16.453125 35.6875 11.515625 40.375 
Q 6.59375 45.0625 6.59375 53.421875 
Q 6.59375 63.09375 13.40625 68.65625 
Q 20.21875 74.21875 32.171875 74.21875 
Q 37.3125 74.21875 42.625 73.28125 
Q 47.953125 72.359375 53.515625 70.515625 
" id="DejaVuSans-53"/>
      <path d="M 39.40625 66.21875 
Q 28.65625 66.21875 22.328125 58.203125 
Q 16.015625 50.203125 16.015625 36.375 
Q 16.015625 22.609375 22.328125 14.59375 
Q 28.65625 6.59375 39.40625 6.59375 
Q 50.140625 6.59375 56.421875 14.59375 
Q 62.703125 22.609375 62.703125 36.375 
Q 62.703125 50.203125 56.421875 58.203125 
Q 50.140625 66.21875 39.40625 66.21875 
M 39.40625 74.21875 
Q 54.734375 74.21875 63.90625 63.9375 
Q 73.09375 53.65625 73.09375 36.375 
Q 73.09375 19.140625 63.90625 8.859375 
Q 54.734375 -1.421875 39.40625 -1.421875 
Q 24.03125 -1.421875 14.8125 8.828125 
Q 5.609375 19.09375 5.609375 36.375 
Q 5.609375 53.65625 14.8125 63.9375 
Q 24.03125 74.21875 39.40625 74.21875 
" id="DejaVuSans-4f"/>
     </defs>
     <g transform="translate(158.587187 191.482187)scale(0.1 -0.1)">
      <use xlink:href="#DejaVuSans-4c"/>
      <use x="55.744141" xlink:href="#DejaVuSans-41"/>
      <use x="124.152344" xlink:href="#DejaVuSans-53"/>
      <use x="187.628906" xlink:href="#DejaVuSans-53"/>
      <use x="251.105469" xlink:href="#DejaVuSans-4f"/>
     </g>
    </g>
    <g id="line2d_25">
     <path d="M 130.587187 202.660312 
L 150.587187 202.660312 
" style="fill:none;stroke:#d62728;stroke-linecap:square;stroke-width:1.5;"/>
    </g>
    <g id="line2d_26">
     <g>
      <use style="fill:#d62728;stroke:#d62728;stroke-linejoin:miter;" x="140.587187" xlink:href="#m29449e14f6" y="202.660312"/>
     </g>
    </g>
    <g id="text_20">
     <!-- least-squares -->
     <defs>
      <path d="M 9.421875 75.984375 
L 18.40625 75.984375 
L 18.40625 0 
L 9.421875 0 
z
" id="DejaVuSans-6c"/>
      <path d="M 14.796875 27.296875 
Q 14.796875 17.390625 18.875 11.75 
Q 22.953125 6.109375 30.078125 6.109375 
Q 37.203125 6.109375 41.296875 11.75 
Q 45.40625 17.390625 45.40625 27.296875 
Q 45.40625 37.203125 41.296875 42.84375 
Q 37.203125 48.484375 30.078125 48.484375 
Q 22.953125 48.484375 18.875 42.84375 
Q 14.796875 37.203125 14.796875 27.296875 
M 45.40625 8.203125 
Q 42.578125 3.328125 38.25 0.953125 
Q 33.9375 -1.421875 27.875 -1.421875 
Q 17.96875 -1.421875 11.734375 6.484375 
Q 5.515625 14.40625 5.515625 27.296875 
Q 5.515625 40.1875 11.734375 48.09375 
Q 17.96875 56 27.875 56 
Q 33.9375 56 38.25 53.625 
Q 42.578125 51.265625 45.40625 46.390625 
L 45.40625 54.6875 
L 54.390625 54.6875 
L 54.390625 -20.796875 
L 45.40625 -20.796875 
z
" id="DejaVuSans-71"/>
     </defs>
     <g transform="translate(158.587187 206.160312)scale(0.1 -0.1)">
      <use xlink:href="#DejaVuSans-6c"/>
      <use x="27.783203" xlink:href="#DejaVuSans-65"/>
      <use x="89.306641" xlink:href="#DejaVuSans-61"/>
      <use x="150.585938" xlink:href="#DejaVuSans-73"/>
      <use x="202.685547" xlink:href="#DejaVuSans-74"/>
      <use x="241.894531" xlink:href="#DejaVuSans-2d"/>
      <use x="277.978516" xlink:href="#DejaVuSans-73"/>
      <use x="330.078125" xlink:href="#DejaVuSans-71"/>
      <use x="393.554688" xlink:href="#DejaVuSans-75"/>
      <use x="456.933594" xlink:href="#DejaVuSans-61"/>
      <use x="518.212891" xlink:href="#DejaVuSans-72"/>
      <use x="559.294922" xlink:href="#DejaVuSans-65"/>
      <use x="620.818359" xlink:href="#DejaVuSans-73"/>
     </g>
    </g>
   </g>
  </g>
 </g>
 <defs>
  <clipPath id="pf037751e4c">
   <rect height="203.92" width="246.85" x="50.87" y="13.32"/>
  </clipPath>
 </defs>
</svg>
